[gd_scene load_steps=11 format=2]

[ext_resource path="res://scenes/levels/level_template.tscn" type="PackedScene" id=1]
[ext_resource path="res://lightmaps/torchmap.png" type="Texture" id=2]
[ext_resource path="res://scenes/doors/door.tscn" type="PackedScene" id=3]
[ext_resource path="res://scenes/loot/briefcase.tscn" type="PackedScene" id=4]
[ext_resource path="res://assets/interface/png/cursor_hand.png" type="Texture" id=5]
[ext_resource path="res://scenes/levels/level_tutorial.gd" type="Script" id=6]
[ext_resource path="res://audio/message.wav" type="AudioStream" id=7]
[ext_resource path="res://scenes/ui/tutorial_gui.tscn" type="PackedScene" id=8]
[ext_resource path="res://scenes/ui/objective_message_template.tscn" type="PackedScene" id=10]

[sub_resource type="RectangleShape2D" id=1]
extents = Vector2( 64, 64 )

[node name="Tutorial" instance=ExtResource( 1 )]
script = ExtResource( 6 )

[node name="Framing" parent="Navigation2D" index="0"]
tile_data = PoolIntArray( -1572843, 1, 0, -1572842, 1, 2, -1572841, 1, 2, -1572840, 1, 1, -1507309, 1, 0, -1507308, 1, 2, -1507307, 1, 65537, -1507306, 7, 0, -1507305, 7, 0, -1507304, 1, 65538, -1441776, 1, 0, -1441775, 1, 2, -1441774, 1, 2, -1441773, 1, 65537, -1441772, 7, 0, -1441771, 7, 0, -1441770, 7, 0, -1441769, 7, 0, -1441768, 1, 65538, -1376241, 1, 0, -1376240, 1, 65537, -1376239, 7, 0, -1376238, 7, 0, -1376237, 7, 0, -1376236, 7, 0, -1376235, 7, 4, -1376234, 7, 0, -1376233, 7, 0, -1376232, 1, 65538, -1310705, 1, 65538, -1310704, 7, 0, -1310703, 7, 0, -1310702, 7, 0, -1310701, 7, 4, -1310700, 7, 4, -1310699, 7, 0, -1310698, 7, 0, -1310697, 7, 0, -1310696, 1, 65538, -1179650, 1, 0, -1179649, 1, 2, -1245184, 1, 3, -1245183, 1, 2, -1245182, 1, 2, -1245181, 1, 2, -1245180, 1, 2, -1245179, 1, 2, -1245178, 1, 2, -1245177, 1, 2, -1245176, 1, 3, -1245175, 1, 2, -1245174, 1, 2, -1245173, 1, 2, -1245172, 1, 1, -1245169, 1, 65538, -1245168, 7, 0, -1245167, 7, 0, -1245166, 7, 4, -1245165, 7, 0, -1245164, 7, 2, -1245163, 7, 0, -1245162, 7, 2, -1245161, 7, 0, -1245160, 1, 65538, -1114115, 1, 0, -1114114, 1, 65537, -1114113, 7, 0, -1179648, 1, 6, -1179647, 7, 0, -1179646, 7, 0, -1179645, 7, 0, -1179644, 7, 0, -1179643, 7, 0, -1179642, 7, 0, -1179641, 7, 0, -1179640, 1, 65538, -1179639, 7, 0, -1179638, 7, 0, -1179637, 7, 0, -1179636, 1, 65536, -1179635, 1, 1, -1179633, 1, 65538, -1179632, 7, 0, -1179631, 7, 2, -1179630, 7, 0, -1179629, 7, 0, -1179628, 7, 0, -1179627, 7, 4, -1179626, 7, 0, -1179625, 7, 0, -1179624, 1, 65538, -1048579, 1, 65538, -1048578, 7, 0, -1048577, 7, 0, -1114112, 7, 0, -1114111, 7, 0, -1114110, 1, 65542, -1114109, 1, 2, -1114108, 1, 2, -1114107, 1, 2, -1114106, 1, 1, -1114105, 7, 0, -1114104, 1, 65538, -1114103, 7, 0, -1114102, 1, 65541, -1114101, 7, 0, -1114100, 7, 0, -1114099, 1, 65538, -1114097, 1, 65538, -1114096, 7, 0, -1114095, 7, 2, -1114094, 7, 0, -1114093, 7, 0, -1114092, 7, 0, -1114091, 7, 4, -1114090, 7, 2, -1114089, 7, 0, -1114088, 1, 65538, -983043, 1, 65538, -983042, 7, 0, -983041, 1, 65541, -1048576, 7, 0, -1048575, 7, 0, -1048574, 7, 0, -1048573, 7, 0, -1048572, 7, 0, -1048571, 7, 0, -1048570, 1, 65538, -1048569, 7, 0, -1048568, 1, 6, -1048567, 7, 0, -1048566, 1, 65538, -1048565, 7, 0, -1048564, 7, 0, -1048563, 1, 65538, -1048561, 1, 65538, -1048560, 7, 0, -1048559, 7, 0, -1048558, 7, 4, -1048557, 7, 2, -1048556, 7, 2, -1048555, 7, 4, -1048554, 7, 0, -1048553, 7, 0, -1048552, 1, 65538, -917507, 1, 65538, -917506, 7, 0, -917505, 1, 65538, -983040, 7, 0, -983039, 1, 65542, -983038, 1, 2, -983037, 1, 2, -983036, 1, 1, -983035, 7, 0, -983034, 1, 65538, -983033, 7, 0, -983032, 7, 0, -983031, 7, 0, -983030, 1, 262146, -983029, 1, 196612, -983028, 1, 196612, -983027, 1, 262147, -983025, 1, 65538, -983024, 7, 0, -983023, 7, 4, -983022, 7, 0, -983021, 7, 0, -983020, 7, 0, -983019, 7, 0, -983018, 7, 0, -983017, 7, 0, -983016, 1, 65538, -851971, 1, 65538, -851970, 7, 0, -851969, 1, 65538, -917504, 7, 0, -917503, 7, 0, -917502, 7, 0, -917501, 7, 0, -917500, 1, 65538, -917499, 7, 0, -917498, 1, 65538, -917497, 7, 0, -917496, 1, 65541, -917495, 7, 0, -917494, 1, 327682, -917493, 1, 196613, -917492, 1, 196613, -917491, 1, 327685, -917490, 1, 2, -917489, 1, 65537, -917488, 7, 0, -917487, 7, 2, -917486, 7, 0, -917485, 7, 0, -917484, 7, 0, -917483, 7, 2, -917482, 7, 0, -917481, 7, 0, -917480, 1, 65538, -786435, 1, 65538, -786434, 7, 0, -786433, 1, 65538, -851968, 7, 0, -851967, 1, 65541, -851966, 7, 0, -851965, 7, 0, -851964, 1, 65538, -851963, 7, 0, -851962, 1, 65538, -851961, 7, 0, -851960, 1, 65538, -851959, 7, 0, -851958, 1, 65538, -851957, 7, 0, -851956, 7, 0, -851955, 7, 0, -851954, 7, 0, -851953, 7, 0, -851952, 7, 0, -851951, 7, 0, -851950, 7, 2, -851949, 7, 0, -851948, 7, 0, -851947, 7, 4, -851946, 7, 4, -851945, 7, 0, -851944, 1, 65538, -720899, 1, 65538, -720898, 7, 0, -720897, 1, 6, -786432, 7, 0, -786431, 1, 65538, -786430, 7, 0, -786429, 7, 0, -786428, 1, 65538, -786427, 7, 0, -786426, 1, 6, -786425, 7, 0, -786424, 1, 65538, -786423, 7, 0, -786422, 1, 6, -786421, 7, 0, -786420, 7, 0, -786419, 1, 0, -786418, 1, 2, -786417, 1, 1, -786416, 7, 0, -786415, 7, 0, -786414, 7, 0, -786413, 7, 0, -786412, 7, 2, -786411, 7, 0, -786410, 7, 4, -786409, 7, 0, -786408, 1, 65538, -655363, 1, 65536, -655362, 1, 1, -655361, 7, 0, -720896, 7, 0, -720895, 1, 65538, -720894, 7, 0, -720893, 7, 0, -720892, 1, 65538, -720891, 7, 0, -720890, 7, 0, -720889, 7, 0, -720888, 1, 65538, -720887, 7, 0, -720886, 7, 0, -720885, 7, 0, -720884, 1, 0, -720883, 1, 65537, -720881, 1, 65538, -720880, 7, 0, -720879, 7, 4, -720878, 7, 0, -720877, 7, 0, -720876, 7, 0, -720875, 7, 4, -720874, 7, 2, -720873, 7, 0, -720872, 1, 65538, -589826, 1, 65536, -589825, 1, 2, -655360, 1, 2, -655359, 1, 4, -655358, 1, 1, -655357, 7, 0, -655356, 1, 65539, -655355, 1, 2, -655354, 1, 2, -655353, 1, 2, -655352, 1, 4, -655351, 1, 2, -655350, 1, 2, -655349, 1, 2, -655348, 1, 65537, -655345, 1, 65538, -655344, 7, 0, -655343, 7, 0, -655342, 7, 0, -655341, 7, 4, -655340, 7, 0, -655339, 7, 2, -655338, 7, 2, -655337, 7, 0, -655336, 1, 65538, -589822, 1, 65538, -589821, 7, 0, -589820, 1, 65538, -589809, 1, 65536, -589808, 1, 1, -589807, 7, 0, -589806, 7, 0, -589805, 7, 4, -589804, 7, 2, -589803, 7, 4, -589802, 7, 0, -589801, 7, 0, -589800, 1, 65538, -524286, 1, 65538, -524285, 7, 0, -524284, 1, 65538, -524272, 1, 65536, -524271, 1, 1, -524270, 7, 0, -524269, 7, 4, -524268, 7, 2, -524267, 7, 2, -524266, 7, 0, -524265, 7, 0, -524264, 1, 65538, -458750, 1, 65538, -458749, 7, 0, -458748, 1, 65538, -458735, 1, 65538, -458734, 7, 0, -458733, 7, 0, -458732, 7, 0, -458731, 7, 0, -458730, 7, 0, -458729, 7, 0, -458728, 1, 65538, -393215, 1, 0, -393214, 1, 65537, -393213, 7, 0, -393212, 1, 65536, -393211, 1, 1, -393199, 1, 65538, -393198, 7, 0, -393197, 7, 0, -393196, 7, 2, -393195, 7, 2, -393194, 7, 4, -393193, 7, 0, -393192, 1, 65538, -262149, 1, 0, -262148, 1, 2, -262147, 1, 2, -262146, 1, 2, -262145, 1, 2, -327680, 1, 2, -327679, 1, 65537, -327678, 7, 0, -327677, 7, 0, -327676, 7, 0, -327675, 1, 65536, -327674, 1, 2, -327673, 1, 2, -327672, 1, 2, -327671, 1, 2, -327670, 1, 2, -327669, 1, 2, -327668, 1, 2, -327667, 1, 2, -327666, 1, 1, -327663, 1, 65538, -327662, 7, 0, -327661, 7, 0, -327660, 7, 0, -327659, 7, 2, -327658, 7, 2, -327657, 7, 0, -327656, 1, 65538, -196613, 1, 65538, -196612, 7, 0, -196611, 7, 0, -196610, 7, 0, -196609, 7, 0, -262144, 7, 0, -262143, 7, 0, -262142, 7, 0, -262141, 7, 0, -262140, 7, 0, -262139, 7, 0, -262138, 7, 0, -262137, 7, 0, -262136, 7, 0, -262135, 7, 0, -262134, 7, 0, -262133, 7, 0, -262132, 7, 0, -262131, 7, 0, -262130, 1, 65538, -262127, 1, 65538, -262126, 7, 0, -262125, 7, 0, -262124, 7, 0, -262123, 7, 0, -262122, 7, 0, -262121, 7, 0, -262120, 1, 65538, -131077, 1, 65538, -131076, 7, 0, -131075, 7, 4, -131074, 7, 0, -131073, 7, 4, -196608, 7, 0, -196607, 7, 4, -196606, 7, 2, -196605, 7, 4, -196604, 7, 2, -196603, 7, 0, -196602, 7, 0, -196601, 7, 4, -196600, 7, 0, -196599, 7, 2, -196598, 7, 4, -196597, 7, 0, -196596, 7, 0, -196595, 7, 0, -196594, 1, 65538, -196591, 1, 65538, -196590, 7, 0, -196589, 7, 0, -196588, 7, 2, -196587, 7, 4, -196586, 7, 2, -196585, 7, 0, -196584, 1, 65538, -65541, 1, 65538, -65540, 7, 0, -65539, 7, 2, -65538, 7, 0, -65537, 7, 0, -131072, 7, 2, -131071, 7, 4, -131070, 7, 0, -131069, 7, 2, -131068, 7, 0, -131067, 7, 0, -131066, 7, 2, -131065, 7, 0, -131064, 7, 4, -131063, 7, 0, -131062, 7, 0, -131061, 7, 0, -131060, 7, 0, -131059, 7, 0, -131058, 1, 65538, -131055, 1, 65536, -131054, 1, 1, -131053, 7, 0, -131052, 7, 0, -131051, 7, 0, -131050, 7, 0, -131049, 7, 0, -131048, 1, 65538, -5, 1, 65538, -4, 7, 0, -3, 7, 2, -2, 7, 0, -1, 7, 0, -65536, 7, 0, -65535, 7, 0, -65534, 7, 2, -65533, 7, 0, -65532, 7, 4, -65531, 7, 4, -65530, 7, 4, -65529, 7, 0, -65528, 7, 2, -65527, 7, 4, -65526, 7, 0, -65525, 7, 0, -65524, 7, 0, -65523, 7, 0, -65522, 1, 65538, -65518, 1, 65536, -65517, 1, 2, -65516, 1, 2, -65515, 1, 1, -65514, 7, 0, -65513, 7, 0, -65512, 1, 65538, 65531, 1, 65538, 65532, 7, 0, 65533, 7, 0, 65534, 7, 0, 65535, 7, 0, 0, 7, 0, 1, 7, 4, 2, 7, 0, 3, 7, 4, 4, 7, 2, 5, 7, 0, 6, 7, 0, 7, 7, 0, 8, 7, 0, 9, 7, 4, 10, 7, 0, 11, 7, 4, 12, 7, 2, 13, 7, 0, 14, 1, 65538, 21, 1, 65538, 22, 7, 0, 23, 7, 0, 24, 1, 65538, 131067, 1, 65538, 131068, 7, 0, 131069, 7, 2, 131070, 7, 2, 131071, 7, 4, 65536, 7, 0, 65537, 7, 2, 65538, 7, 0, 65539, 7, 0, 65540, 7, 0, 65541, 7, 0, 65542, 7, 0, 65543, 7, 4, 65544, 7, 4, 65545, 7, 4, 65546, 7, 2, 65547, 7, 2, 65548, 7, 4, 65549, 7, 0, 65550, 1, 65538, 65557, 1, 65536, 65558, 1, 1, 65559, 7, 0, 65560, 1, 65538, 196603, 1, 65538, 196604, 7, 0, 196605, 7, 4, 196606, 7, 0, 196607, 7, 0, 131072, 7, 0, 131073, 7, 0, 131074, 7, 4, 131075, 7, 0, 131076, 7, 2, 131077, 7, 4, 131078, 7, 0, 131079, 7, 0, 131080, 7, 0, 131081, 7, 0, 131082, 7, 0, 131083, 7, 0, 131084, 7, 0, 131085, 7, 0, 131086, 1, 65538, 131094, 1, 65536, 131095, 1, 262148, 131096, 1, 262147, 262139, 1, 65538, 262140, 7, 0, 262141, 7, 0, 262142, 7, 2, 262143, 7, 4, 196608, 7, 2, 196609, 7, 0, 196610, 7, 0, 196611, 7, 4, 196612, 7, 0, 196613, 7, 0, 196614, 7, 2, 196615, 7, 0, 196616, 7, 0, 196617, 7, 2, 196618, 7, 2, 196619, 7, 0, 196620, 7, 2, 196621, 7, 0, 196622, 1, 65538, 196631, 1, 65543, 196632, 1, 65544, 327675, 1, 65538, 327676, 7, 0, 327677, 7, 0, 327678, 7, 0, 327679, 7, 0, 262144, 7, 2, 262145, 7, 2, 262146, 7, 4, 262147, 7, 0, 262148, 7, 2, 262149, 7, 4, 262150, 7, 0, 262151, 7, 4, 262152, 7, 0, 262153, 7, 0, 262154, 7, 0, 262155, 7, 0, 262156, 7, 2, 262157, 7, 0, 262158, 1, 65538, 393211, 1, 65538, 393212, 7, 0, 393213, 7, 0, 393214, 7, 2, 393215, 7, 2, 327680, 7, 4, 327681, 7, 0, 327682, 7, 2, 327683, 7, 0, 327684, 7, 4, 327685, 7, 0, 327686, 7, 0, 327687, 7, 0, 327688, 7, 4, 327689, 7, 0, 327690, 7, 2, 327691, 7, 0, 327692, 7, 4, 327693, 7, 0, 327694, 1, 65538, 458747, 1, 65538, 458748, 7, 0, 458749, 7, 4, 458750, 7, 0, 458751, 7, 0, 393216, 7, 2, 393217, 7, 4, 393218, 7, 0, 393219, 7, 0, 393220, 7, 2, 393221, 7, 0, 393222, 7, 0, 393223, 7, 0, 393224, 7, 0, 393225, 7, 4, 393226, 7, 2, 393227, 7, 0, 393228, 7, 0, 393229, 7, 0, 393230, 1, 65538, 524283, 1, 65538, 524284, 7, 0, 524285, 7, 4, 524286, 7, 0, 524287, 7, 0, 458752, 7, 0, 458753, 7, 0, 458754, 7, 4, 458755, 7, 0, 458756, 7, 0, 458757, 7, 4, 458758, 7, 2, 458759, 7, 2, 458760, 7, 2, 458761, 7, 2, 458762, 7, 4, 458763, 7, 0, 458764, 7, 0, 458765, 7, 0, 458766, 1, 65538, 589819, 1, 65538, 589820, 7, 0, 589821, 7, 0, 589822, 7, 0, 589823, 7, 0, 524288, 7, 0, 524289, 7, 0, 524290, 7, 0, 524291, 7, 0, 524292, 7, 0, 524293, 7, 0, 524294, 7, 0, 524295, 7, 0, 524296, 7, 0, 524297, 7, 0, 524298, 7, 0, 524299, 7, 0, 524300, 7, 0, 524301, 7, 0, 524302, 1, 65538, 655355, 1, 65536, 655356, 1, 2, 655357, 1, 2, 655358, 1, 2, 655359, 1, 2, 589824, 1, 2, 589825, 1, 2, 589826, 1, 2, 589827, 1, 2, 589828, 1, 2, 589829, 1, 2, 589830, 1, 2, 589831, 1, 2, 589832, 1, 2, 589833, 1, 2, 589834, 1, 2, 589835, 1, 2, 589836, 1, 2, 589837, 1, 2, 589838, 1, 65537 )

[node name="Decor" parent="Navigation2D" index="1"]
tile_data = PoolIntArray(  )

[node name="Door" parent="Doors" index="0" instance=ExtResource( 3 )]
position = Vector2( 224, -624 )

[node name="LockableDoors" parent="." index="6"]
position = Vector2( 0, 4 )

[node name="Briefcase" parent="Loot" index="0" instance=ExtResource( 4 )]
position = Vector2( 1352, -312 )

[node name="Exit" parent="." index="9"]
margin_left = 1200.0
margin_top = -1216.0
margin_right = 1400.0
margin_bottom = -1116.0

[node name="Lights" type="Node2D" parent="." index="11"]

[node name="Light2D" type="Light2D" parent="Lights" index="0"]
position = Vector2( 560, 240 )
rotation = -2.35619
scale = Vector2( 1.5, 1.5 )
texture = ExtResource( 2 )
energy = 0.5
shadow_enabled = true

[node name="Light2D5" type="Light2D" parent="Lights" index="1"]
light_mask = -2147483647
position = Vector2( 256, -536 )
rotation = -1.88845
scale = Vector2( 0.25, 0.25 )
texture = ExtResource( 2 )
offset = Vector2( 300, 0 )
energy = 0.5
shadow_enabled = true
shadow_item_cull_mask = 0

[node name="Light2D2" type="Light2D" parent="Lights" index="2"]
position = Vector2( 80, 240 )
rotation = -0.785398
scale = Vector2( 1.5, 1.5 )
texture = ExtResource( 2 )
energy = 0.5
shadow_enabled = true

[node name="Light2D3" type="Light2D" parent="Lights" index="3"]
position = Vector2( 1288, -544 )
rotation = -1.5708
scale = Vector2( 1.5, 1.5 )
texture = ExtResource( 2 )
energy = 0.5
shadow_enabled = true

[node name="Light2D4" type="Light2D" parent="Lights" index="4"]
position = Vector2( 1288, -936 )
rotation = 1.5708
scale = Vector2( 1.5, 1.5 )
texture = ExtResource( 2 )
energy = 0.5
shadow_enabled = true

[node name="Objectives" type="Node2D" parent="." index="12"]
position = Vector2( 224, -576 )

[node name="Pointer" type="Sprite" parent="Objectives" index="0"]
position = Vector2( -80, 680 )
texture = ExtResource( 5 )
__meta__ = {
"_edit_group_": true
}

[node name="Light2D" type="Light2D" parent="Objectives/Pointer" index="0"]
texture = ExtResource( 5 )

[node name="Areas" type="Node2D" parent="Objectives" index="1"]

[node name="MoveArea" type="Area2D" parent="Objectives/Areas" index="0"]
position = Vector2( 0, 192 )
collision_layer = 0
__meta__ = {
"_edit_group_": true
}

[node name="CollisionShape2D" type="CollisionShape2D" parent="Objectives/Areas/MoveArea" index="0"]
shape = SubResource( 1 )

[node name="DoorArea" type="Area2D" parent="Objectives/Areas" index="1"]
position = Vector2( -32, -128 )
collision_layer = 0
__meta__ = {
"_edit_group_": true
}

[node name="CollisionShape2D" type="CollisionShape2D" parent="Objectives/Areas/DoorArea" index="0"]
shape = SubResource( 1 )

[node name="NVArea" type="Area2D" parent="Objectives/Areas" index="2"]
position = Vector2( 800, -232 )
collision_layer = 0
__meta__ = {
"_edit_group_": true
}

[node name="CollisionShape2D" type="CollisionShape2D" parent="Objectives/Areas/NVArea" index="0"]
shape = SubResource( 1 )

[node name="BriefcaseArea" type="Area2D" parent="Objectives/Areas" index="3"]
position = Vector2( 1128, 264 )
collision_layer = 0
__meta__ = {
"_edit_group_": true
}

[node name="CollisionShape2D" type="CollisionShape2D" parent="Objectives/Areas/BriefcaseArea" index="0"]
shape = SubResource( 1 )

[node name="Markers" type="Node2D" parent="Objectives" index="2"]

[node name="MoveMarker" type="Position2D" parent="Objectives/Markers" index="0"]
position = Vector2( 0, 136 )

[node name="DoorMarker" type="Position2D" parent="Objectives/Markers" index="1"]
position = Vector2( 24, -40 )

[node name="NVMarker" type="Position2D" parent="Objectives/Markers" index="2"]
position = Vector2( 792, -224 )

[node name="LootMarker" type="Position2D" parent="Objectives/Markers" index="3"]
position = Vector2( 1144, 280 )

[node name="ExitMarker" type="Position2D" parent="Objectives/Markers" index="4"]
position = Vector2( 1112, -584 )

[node name="Messages" type="Node" parent="Objectives" index="3"]

[node name="WelcomeMessage" parent="Objectives/Messages" index="0" instance=ExtResource( 10 )]
message = "Greetings Heistling!

Use [W] [A] [S] [D] to move towards the spooky hand."

[node name="DoorMessage" parent="Objectives/Messages" index="1" instance=ExtResource( 10 )]
message = "Good. Next - interacting with objects.

Move close to the door and click on it to open the door."

[node name="NVMessage" parent="Objectives/Messages" index="2" instance=ExtResource( 10 )]
message = "Press [F] or [Mouse Thumb Button Up] to toggle your Greensight Nightvision Optical Module version E."

[node name="LootMessage" parent="Objectives/Messages" index="3" instance=ExtResource( 10 )]
message = "Move right into that briefcase to acquire it before extraction!"

[node name="ExitMessage" parent="Objectives/Messages" index="4" instance=ExtResource( 10 )]
message = "Time to extract! Move towards the region neatly marked as EXIT to make your getaway!"

[node name="Tween" type="Tween" parent="." index="13"]

[node name="MessageAudio" type="AudioStreamPlayer" parent="." index="14"]
stream = ExtResource( 7 )
volume_db = -10.0

[node name="TutorialGUI" parent="." index="15" instance=ExtResource( 8 )]
[connection signal="body_entered" from="Objectives/Areas/MoveArea" to="." method="_on_MoveArea_body_entered" flags=6]
[connection signal="body_entered" from="Objectives/Areas/DoorArea" to="." method="_on_DoorArea_body_entered" flags=6]
[connection signal="body_entered" from="Objectives/Areas/NVArea" to="." method="_on_NVArea_body_entered" flags=6]
[connection signal="body_entered" from="Objectives/Areas/BriefcaseArea" to="." method="_on_BriefcaseArea_body_entered" flags=6]
