[gd_scene load_steps=3 format=2]

[ext_resource path="res://scenes/doors/base_double_doors.tscn" type="PackedScene" id=1]
[ext_resource path="res://scenes/doors/door.tscn" type="PackedScene" id=2]





[node name="DoubleDoors" instance=ExtResource( 1 )]

[node name="Door" parent="DoorSlot1" index="0" instance=ExtResource( 2 )]

[node name="Door" parent="DoorSlot2" index="0" instance=ExtResource( 2 )]
