[gd_resource type="OccluderPolygon2D" format=2]

[resource]
cull_mode = 1
polygon = PoolVector2Array( -14.0461, -3.63041, -13.0432, -5.75413, -12.6875, -7.21875, -12.5938, -11.9063, -12.2188, -14.4375, -11.2188, -16.8125, -9.5625, -18.9375, -7.6875, -20.4375, -5.86501, -21.4934, -2.6452, -22.061, -0.11528, -21.9618, 1.76976, -21.6642, 5.15706, -19.311, 6.77935, -17.4233, 8.19516, -14.1492, 8.64546, -10.7599, 8.70277, -6.62832, 10.1997, -4.26591, 11.9731, -2.02015, 12.4522, -0.761955, 12.2854, 0.572886, 10.1905, 4.92361, 9.29702, 6.39518, 8.5625, 7.71434, 8.59966, 11.4306, 8.33952, 13.8834, 7.42076, 15.9045, 6.40352, 17.4479, 5.49152, 18.7106, 3.63245, 20.254, 0.510599, 21.622, -1.69925, 21.8325, -4.43525, 21.622, -6.36448, 21.0608, -8.39894, 19.7629, -11.0662, 16.9262, -12.1507, 14.34, -12.693, 11.712, -12.603, 9.56162, -12.603, 8.05902, -13.0166, 6.14916, -13.6755, 4.774, -14.3381, 3.18263, -14.282, -1.32972 )
